#
# A fatal error has been detected by the Java Runtime Environment:
#
#  EXCEPTION_ACCESS_VIOLATION (0xc0000005) at pc=0x000000006fb0de93, pid=413260, tid=0x00000000000650f8
#
# JRE version: Java(TM) SE Runtime Environment (8.0_181-b13) (build 1.8.0_181-b13)
# Java VM: Java HotSpot(TM) 64-Bit Server VM (25.181-b13 mixed mode windows-amd64 compressed oops)
# Problematic frame:
# V  [jvm.dll+0xfde93]
#
# Failed to write core dump. Minidumps are not enabled by default on client versions of Windows
#
# If you would like to submit a bug report, please visit:
#   http://bugreport.java.com/bugreport/crash.jsp
#

---------------  T H R E A D  ---------------

Current thread (0x000000001c399800):  VMThread [stack: 0x000000001e080000,0x000000001e180000] [id=413944]

siginfo: ExceptionCode=0xc0000005, reading address 0xffffffffffffffff

Registers:
RAX=0x0000000000000002, RBX=0x000000001e17f060, RCX=0x000000001e17f060, RDX=0xffffffffffffca42
RSP=0x000000001e17ee10, RBP=0x000000001e17ee80, RSI=0x000000001e17f060, RDI=0x00000000000000a2
R8 =0x0000000000000002, R9 =0x000000001c2254a0, R10=0x03ffffffffffff29, R11=0x000000001bdbe69b
R12=0x0000000000000000, R13=0x000000006fb0de70, R14=0x000000000000000b, R15=0x0000000000000001
RIP=0x000000006fb0de93, EFLAGS=0x0000000000010a02

Top of Stack: (sp=0x000000001e17ee10)
0x000000001e17ee10:   000000001e17f060 000000001e17ee80
0x000000001e17ee20:   000000000000000b 000000006fac25ce
0x000000001e17ee30:   000000001e17f060 000000006fb0fc79
0x000000001e17ee40:   00000000024937ca 000000001e17f060
0x000000001e17ee50:   000000001e17f060 000000006fb0f756
0x000000001e17ee60:   000000001e17eed0 000000001e17eec9
0x000000001e17ee70:   00000000ffffffbc 000000006fb0f756
0x000000001e17ee80:   00000000000003d8 000000001c2257d8
0x000000001e17ee90:   0000000000000000 00000000000000a2
0x000000001e17eea0:   000000001c399800 000000006fb10704
0x000000001e17eeb0:   000000001e17f060 0000000000000000
0x000000001e17eec0:   000000000000000b 000000000000000a
0x000000001e17eed0:   000000001bdbe728 000000001c399800
0x000000001e17eee0:   0000000e0000000b 000000a200000044
0x000000001e17eef0:   0000000000000000 00000000000000a2
0x000000001e17ef00:   0000000000000003 00000000000003d8 

Instructions: (pc=0x000000006fb0de93)
0x000000006fb0de73:   83 ec 20 4c 8b 89 90 00 00 00 48 63 d2 48 8b d9
0x000000006fb0de83:   0f b6 c2 4c 8b d2 24 3f 49 c1 ea 06 44 0f b6 c0
0x000000006fb0de93:   4b 8b 04 d1 4c 0f a3 c0 72 0f 48 83 c1 70 41 b0
0x000000006fb0dea3:   01 e8 b7 82 17 00 ff 43 6c 48 83 c4 20 5b c3 cc 


Register to memory mapping:

RAX=0x0000000000000002 is an unknown value
RBX=0x000000001e17f060 is an unknown value
RCX=0x000000001e17f060 is an unknown value
RDX=0xffffffffffffca42 is an unknown value
RSP=0x000000001e17ee10 is an unknown value
RBP=0x000000001e17ee80 is an unknown value
RSI=0x000000001e17f060 is an unknown value
RDI=0x00000000000000a2 is an unknown value
R8 =0x0000000000000002 is an unknown value
R9 =0x000000001c2254a0 is an unknown value
R10=0x03ffffffffffff29 is an unknown value
R11=0x000000001bdbe69b is pointing into metadata
R12=0x0000000000000000 is an unknown value
R13=0x000000006fb0de70 is an unknown value
R14=0x000000000000000b is an unknown value
R15=0x0000000000000001 is an unknown value


Stack: [0x000000001e080000,0x000000001e180000],  sp=0x000000001e17ee10,  free space=1019k
Native frames: (J=compiled Java code, j=interpreted, Vv=VM code, C=native code)
V  [jvm.dll+0xfde93]
V  [jvm.dll+0xffc79]
V  [jvm.dll+0x100704]
V  [jvm.dll+0x103ae4]
V  [jvm.dll+0xc50be]
V  [jvm.dll+0xc5748]
V  [jvm.dll+0xc587a]
V  [jvm.dll+0xc5a78]
V  [jvm.dll+0x10f94a]
V  [jvm.dll+0x12d22f]
V  [jvm.dll+0x1bf3df]
V  [jvm.dll+0x24cc27]
V  [jvm.dll+0x24bec6]
V  [jvm.dll+0x24c361]
V  [jvm.dll+0x24c57e]
V  [jvm.dll+0x29e64a]
C  [msvcr100.dll+0x21d9f]
C  [msvcr100.dll+0x21e3b]
C  [KERNEL32.DLL+0x13034]
C  [ntdll.dll+0x71461]

VM_Operation (0x000000001eb8f360): GetOrSetLocal, mode: safepoint, requested by thread 0x000000001e2c8800


---------------  P R O C E S S  ---------------

Java Threads: ( => current thread )
  0x000000001e419000 JavaThread "Service Thread" daemon [_thread_blocked, id=414164, stack(0x000000001f190000,0x000000001f290000)]
  0x000000001e38e000 JavaThread "C1 CompilerThread3" daemon [_thread_blocked, id=414400, stack(0x000000001f090000,0x000000001f190000)]
  0x000000001e38b800 JavaThread "C2 CompilerThread2" daemon [_thread_blocked, id=412680, stack(0x000000001ef90000,0x000000001f090000)]
  0x000000001e389800 JavaThread "C2 CompilerThread1" daemon [_thread_blocked, id=414544, stack(0x000000001ee90000,0x000000001ef90000)]
  0x000000001e387000 JavaThread "C2 CompilerThread0" daemon [_thread_blocked, id=414552, stack(0x000000001ed90000,0x000000001ee90000)]
  0x000000001e2ca800 JavaThread "JDWP Command Reader" daemon [_thread_in_native, id=414504, stack(0x000000001ec90000,0x000000001ed90000)]
  0x000000001e2c9800 JavaThread "JDWP Event Helper Thread" daemon [_thread_blocked, id=413472, stack(0x000000001eb90000,0x000000001ec90000)]
  0x000000001e2c8800 JavaThread "JDWP Transport Listener: dt_socket" daemon [_thread_blocked, id=414536, stack(0x000000001ea90000,0x000000001eb90000)]
  0x000000001e2b2000 JavaThread "Attach Listener" daemon [_thread_blocked, id=414344, stack(0x000000001e990000,0x000000001ea90000)]
  0x000000001e2b1000 JavaThread "Signal Dispatcher" daemon [_thread_blocked, id=414588, stack(0x000000001e890000,0x000000001e990000)]
  0x000000001e2a1000 JavaThread "Finalizer" daemon [_thread_blocked, id=414568, stack(0x000000001e680000,0x000000001e780000)]
  0x0000000002979000 JavaThread "Reference Handler" daemon [_thread_blocked, id=413344, stack(0x000000001e180000,0x000000001e280000)]
  0x0000000002883800 JavaThread "main" [_thread_blocked, id=414696, stack(0x00000000025b0000,0x00000000026b0000)]

Other Threads:
=>0x000000001c399800 VMThread [stack: 0x000000001e080000,0x000000001e180000] [id=413944]
  0x000000001e46e800 WatcherThread [stack: 0x000000001f290000,0x000000001f390000] [id=414260]

VM state:at safepoint (normal execution)

VM Mutex/Monitor currently owned by a thread:  ([mutex/lock_event])
[0x0000000002880ad0] Threads_lock - owner thread: 0x000000001c399800

Heap:
 PSYoungGen      total 76288K, used 3932K [0x000000076b400000, 0x0000000770900000, 0x00000007c0000000)
  eden space 65536K, 6% used [0x000000076b400000,0x000000076b7d7128,0x000000076f400000)
  from space 10752K, 0% used [0x000000076fe80000,0x000000076fe80000,0x0000000770900000)
  to   space 10752K, 0% used [0x000000076f400000,0x000000076f400000,0x000000076fe80000)
 ParOldGen       total 175104K, used 0K [0x00000006c1c00000, 0x00000006cc700000, 0x000000076b400000)
  object space 175104K, 0% used [0x00000006c1c00000,0x00000006c1c00000,0x00000006cc700000)
 Metaspace       used 3171K, capacity 4600K, committed 4864K, reserved 1056768K
  class space    used 343K, capacity 424K, committed 512K, reserved 1048576K

Card table byte_map: [0x0000000011d40000,0x0000000012540000] byte_map_base: 0x000000000e732000

Marking Bits: (ParMarkBitMap*) 0x0000000070232d00
 Begin Bits: [0x0000000013290000, 0x0000000017220000)
 End Bits:   [0x0000000017220000, 0x000000001b1b0000)

Polling page: 0x0000000002460000

CodeCache: size=245760Kb used=1113Kb max_used=1122Kb free=244646Kb
 bounds [0x0000000002980000, 0x0000000002bf0000, 0x0000000011980000]
 total_blobs=261 nmethods=24 adapters=158
 compilation: enabled

Compilation events (10 events):
Event: 0.191 Thread 0x000000001e38e000 nmethod 23 0x0000000002a92c10 code [0x0000000002a92d60, 0x0000000002a92f50]
Event: 0.191 Thread 0x000000001e38e000   16       1       java.util.ArrayList::size (5 bytes)
Event: 0.191 Thread 0x000000001e38e000 nmethod 16 0x0000000002a92fd0 code [0x0000000002a93120, 0x0000000002a93230]
Event: 0.191 Thread 0x000000001e38e000   21  s    3       java.lang.StringBuffer::append (13 bytes)
Event: 0.191 Thread 0x000000001e38e000 nmethod 21 0x0000000002a93290 code [0x0000000002a93440, 0x0000000002a93b78]
Event: 0.192 Thread 0x000000001e38e000   18   !   3       sun.misc.URLClassPath$JarLoader::getResource (85 bytes)
Event: 0.192 Thread 0x000000001e38e000 nmethod 18 0x0000000002a93f90 code [0x0000000002a941e0, 0x0000000002a94e48]
Event: 0.194 Thread 0x000000001e38b800 nmethod 22 0x0000000002a98610 code [0x0000000002a98760, 0x0000000002a98b88]
Event: 158.290 Thread 0x000000001e38e000   24       3       java.util.HashMap::getNode (148 bytes)
Event: 158.291 Thread 0x000000001e38e000 nmethod 24 0x0000000002a97750 code [0x0000000002a97920, 0x0000000002a98308]

GC Heap History (0 events):
No events

Deoptimization events (0 events):
No events

Classes redefined (3 events):
Event: 158.291 Thread 0x000000001c399800 redefined class name=BubbleSort, count=1
Event: 183.433 Thread 0x000000001c399800 redefined class name=BubbleSort, count=2
Event: 209.540 Thread 0x000000001c399800 redefined class name=BubbleSort, count=3

Internal exceptions (2 events):
Event: 0.043 Thread 0x0000000002883800 Exception <a 'java/lang/NoSuchMethodError': Method sun.misc.Unsafe.defineClass(Ljava/lang/String;[BII)Ljava/lang/Class; name or signature does not match> (0x000000076b407cb0) thrown at [C:\re\workspace\8-2-build-windows-amd64-cygwin\jdk8u181\11358\hotspot
Event: 0.043 Thread 0x0000000002883800 Exception <a 'java/lang/NoSuchMethodError': Method sun.misc.Unsafe.prefetchRead(Ljava/lang/Object;J)V name or signature does not match> (0x000000076b407f98) thrown at [C:\re\workspace\8-2-build-windows-amd64-cygwin\jdk8u181\11358\hotspot\src\share\vm\prim

Events (10 events):
Event: 209.536 Executing VM operation: ChangeBreakpoints done
Event: 209.540 Executing VM operation: RedefineClasses
Event: 209.540 Executing VM operation: RedefineClasses done
Event: 209.568 Executing VM operation: ChangeBreakpoints
Event: 209.568 Executing VM operation: ChangeBreakpoints done
Event: 209.570 Executing VM operation: ChangeBreakpoints
Event: 209.570 Executing VM operation: ChangeBreakpoints done
Event: 209.570 Executing VM operation: ChangeBreakpoints
Event: 209.570 Executing VM operation: ChangeBreakpoints done
Event: 209.573 Executing VM operation: GetOrSetLocal


Dynamic libraries:
0x00007ff601390000 - 0x00007ff6013c7000 	C:\Program Files\Java\jdk1.8.0_181\bin\java.exe
0x00007ffb22780000 - 0x00007ffb22961000 	C:\WINDOWS\SYSTEM32\ntdll.dll
0x00007ffb21f10000 - 0x00007ffb21fc2000 	C:\WINDOWS\System32\KERNEL32.DLL
0x00007ffb1f660000 - 0x00007ffb1f8d3000 	C:\WINDOWS\System32\KERNELBASE.dll
0x00007ffb22160000 - 0x00007ffb22201000 	C:\WINDOWS\System32\ADVAPI32.dll
0x00007ffb21b90000 - 0x00007ffb21c2e000 	C:\WINDOWS\System32\msvcrt.dll
0x00007ffb215d0000 - 0x00007ffb2162b000 	C:\WINDOWS\System32\sechost.dll
0x00007ffb21de0000 - 0x00007ffb21f04000 	C:\WINDOWS\System32\RPCRT4.dll
0x00007ffb21fd0000 - 0x00007ffb22160000 	C:\WINDOWS\System32\USER32.dll
0x00007ffb1fb70000 - 0x00007ffb1fb90000 	C:\WINDOWS\System32\win32u.dll
0x00007ffb215a0000 - 0x00007ffb215c8000 	C:\WINDOWS\System32\GDI32.dll
0x00007ffb1f4c0000 - 0x00007ffb1f652000 	C:\WINDOWS\System32\gdi32full.dll
0x00007ffb1f8e0000 - 0x00007ffb1f97f000 	C:\WINDOWS\System32\msvcp_win.dll
0x00007ffb1ec50000 - 0x00007ffb1ed4a000 	C:\WINDOWS\System32\ucrtbase.dll
0x00007ffb14bd0000 - 0x00007ffb14e39000 	C:\WINDOWS\WinSxS\amd64_microsoft.windows.common-controls_6595b64144ccf1df_6.0.17134.345_none_fb429a5930656358\COMCTL32.dll
0x00007ffb21840000 - 0x00007ffb21b63000 	C:\WINDOWS\System32\combase.dll
0x00007ffb1fb90000 - 0x00007ffb1fc0a000 	C:\WINDOWS\System32\bcryptPrimitives.dll
0x00007ffb216b0000 - 0x00007ffb216dd000 	C:\WINDOWS\System32\IMM32.DLL
0x0000000071210000 - 0x00000000712e2000 	C:\Program Files\Java\jdk1.8.0_181\jre\bin\msvcr100.dll
0x000000006fa10000 - 0x00000000702b2000 	C:\Program Files\Java\jdk1.8.0_181\jre\bin\server\jvm.dll
0x00007ffb21640000 - 0x00007ffb21648000 	C:\WINDOWS\System32\PSAPI.DLL
0x00007ffb19550000 - 0x00007ffb1955a000 	C:\WINDOWS\SYSTEM32\VERSION.dll
0x00007ffb153e0000 - 0x00007ffb15403000 	C:\WINDOWS\SYSTEM32\WINMM.dll
0x00007ffb1cd70000 - 0x00007ffb1cd79000 	C:\WINDOWS\SYSTEM32\WSOCK32.dll
0x00007ffb21d00000 - 0x00007ffb21d6c000 	C:\WINDOWS\System32\WS2_32.dll
0x00007ffb14e40000 - 0x00007ffb14e6a000 	C:\WINDOWS\SYSTEM32\WINMMBASE.dll
0x00007ffb1ec00000 - 0x00007ffb1ec49000 	C:\WINDOWS\System32\cfgmgr32.dll
0x0000000071200000 - 0x000000007120f000 	C:\Program Files\Java\jdk1.8.0_181\jre\bin\verify.dll
0x0000000070ef0000 - 0x0000000070f19000 	C:\Program Files\Java\jdk1.8.0_181\jre\bin\java.dll
0x0000000070e90000 - 0x0000000070ec5000 	C:\Program Files\Java\jdk1.8.0_181\jre\bin\jdwp.dll
0x00000000711f0000 - 0x00000000711f8000 	C:\Program Files\Java\jdk1.8.0_181\jre\bin\npt.dll
0x0000000070e60000 - 0x0000000070e83000 	C:\Program Files\Java\jdk1.8.0_181\jre\bin\instrument.dll
0x0000000070ed0000 - 0x0000000070ee6000 	C:\Program Files\Java\jdk1.8.0_181\jre\bin\zip.dll
0x00007ffb1fee0000 - 0x00007ffb2131f000 	C:\WINDOWS\System32\SHELL32.dll
0x00007ffb1fe30000 - 0x00007ffb1fed9000 	C:\WINDOWS\System32\shcore.dll
0x00007ffb1edb0000 - 0x00007ffb1f4bd000 	C:\WINDOWS\System32\windows.storage.dll
0x00007ffb214c0000 - 0x00007ffb21511000 	C:\WINDOWS\System32\shlwapi.dll
0x00007ffb1eb30000 - 0x00007ffb1eb41000 	C:\WINDOWS\System32\kernel.appcore.dll
0x00007ffb1eaf0000 - 0x00007ffb1eb0f000 	C:\WINDOWS\System32\profapi.dll
0x00007ffb1ea90000 - 0x00007ffb1eadc000 	C:\WINDOWS\System32\powrprof.dll
0x00007ffb1eae0000 - 0x00007ffb1eaea000 	C:\WINDOWS\System32\FLTLIB.DLL
0x0000000070e50000 - 0x0000000070e59000 	C:\Program Files\Java\jdk1.8.0_181\jre\bin\dt_socket.dll
0x00007ffb1e310000 - 0x00007ffb1e376000 	C:\WINDOWS\system32\mswsock.dll
0x00007ffb12c90000 - 0x00007ffb12e59000 	C:\WINDOWS\SYSTEM32\dbghelp.dll

VM Arguments:
jvm_args: -agentlib:jdwp=transport=dt_socket,address=127.0.0.1:57525,suspend=y,server=n -javaagent:C:\Users\Tomas\.IntelliJIdea2018.2\system\captureAgent\debugger-agent.jar=file:/C:/Users/Tomas/AppData/Local/Temp/capture.props -Dfile.encoding=UTF-8 
java_command: BubbleSort
java_class_path (initial): C:\Program Files\Java\jdk1.8.0_181\jre\lib\charsets.jar;C:\Program Files\Java\jdk1.8.0_181\jre\lib\deploy.jar;C:\Program Files\Java\jdk1.8.0_181\jre\lib\ext\access-bridge-64.jar;C:\Program Files\Java\jdk1.8.0_181\jre\lib\ext\cldrdata.jar;C:\Program Files\Java\jdk1.8.0_181\jre\lib\ext\dnsns.jar;C:\Program Files\Java\jdk1.8.0_181\jre\lib\ext\jaccess.jar;C:\Program Files\Java\jdk1.8.0_181\jre\lib\ext\jfxrt.jar;C:\Program Files\Java\jdk1.8.0_181\jre\lib\ext\localedata.jar;C:\Program Files\Java\jdk1.8.0_181\jre\lib\ext\nashorn.jar;C:\Program Files\Java\jdk1.8.0_181\jre\lib\ext\sunec.jar;C:\Program Files\Java\jdk1.8.0_181\jre\lib\ext\sunjce_provider.jar;C:\Program Files\Java\jdk1.8.0_181\jre\lib\ext\sunmscapi.jar;C:\Program Files\Java\jdk1.8.0_181\jre\lib\ext\sunpkcs11.jar;C:\Program Files\Java\jdk1.8.0_181\jre\lib\ext\zipfs.jar;C:\Program Files\Java\jdk1.8.0_181\jre\lib\javaws.jar;C:\Program Files\Java\jdk1.8.0_181\jre\lib\jce.jar;C:\Program Files\Java\jdk1.8.0_181\jre\lib\jfr.jar;C:\Program Files\Java\jdk1.8.0_181\jre\lib\jfxswt.jar;C:\Program Files\Java\jdk1.8.0_181\jre\lib\jsse.jar;C:\Program Files\Java\jdk1.8.0_181\jre\lib\management-agent.jar;C:\Program Files\Java\jdk1.8.0_181\jre\lib\plugin.jar;C:\Program Files\Java\jdk1.8.0_181\jre\lib\resources.jar;C:\Program Files\Java\jdk1.8.0_181\jre\lib\rt.jar;C:\Users\Tomas\IdeaProjects\Zajecia10\out\production\Zajecia10;C:\Program Files\JetBrains\IntelliJ IDEA 2018.2.4\lib\idea_rt.jar;C:\Users\Tomas\.IntelliJIdea2018.2\system\captureAgent\debugger-agent.jar
Launcher Type: SUN_STANDARD

Environment Variables:
PATH=C:\Program Files (x86)\Common Files\Oracle\Java\javapath;C:\Program Files (x86)\Intel\iCLS Client\;C:\Program Files\Intel\iCLS Client\;C:\Windows\system32;C:\Windows;C:\Windows\System32\Wbem;C:\Windows\System32\WindowsPowerShell\v1.0\;C:\Program Files (x86)\Intel\Intel(R) Management Engine Components\DAL;C:\Program Files\Intel\Intel(R) Management Engine Components\DAL;C:\Program Files (x86)\Intel\Intel(R) Management Engine Components\IPT;C:\Program Files\Intel\Intel(R) Management Engine Components\IPT;C:\Program Files (x86)\NVIDIA Corporation\PhysX\Common;C:\WINDOWS\system32;C:\WINDOWS;C:\WINDOWS\System32\Wbem;C:\WINDOWS\System32\WindowsPowerShell\v1.0\;C:\WINDOWS\System32\OpenSSH\;C:\Program Files (x86)\WindowsPowerShell\bin;C:\Users\Tomas\AppData\Local\Microsoft\WindowsApps;
USERNAME=Tomas
OS=Windows_NT
PROCESSOR_IDENTIFIER=Intel64 Family 6 Model 158 Stepping 9, GenuineIntel



---------------  S Y S T E M  ---------------

OS: Windows 10.0 , 64 bit Build 17134 (10.0.17134.1)

CPU:total 8 (initial active 8) (4 cores per cpu, 2 threads per core) family 6 model 158 stepping 9, cmov, cx8, fxsr, mmx, sse, sse2, sse3, ssse3, sse4.1, sse4.2, popcnt, avx, avx2, aes, clmul, erms, 3dnowpref, lzcnt, ht, tsc, tscinvbit, bmi1, bmi2, adx

Memory: 4k page, physical 16658020k(9159684k free), swap 19148388k(7067356k free)

vm_info: Java HotSpot(TM) 64-Bit Server VM (25.181-b13) for windows-amd64 JRE (1.8.0_181-b13), built on Jul  7 2018 04:01:33 by "java_re" with MS VC++ 10.0 (VS2010)

time: Sun Oct 28 14:50:53 2018
elapsed time: 209 seconds (0d 0h 3m 29s)

